Wildfire Data
…
# View table
california_evac_summary

## # A tibble: 47 × 4
##    Zone     Duration_Hours Population_Affected Evacuation_Duration_Per_Person
##    <chr>             <dbl>               <dbl>                          <dbl>
##  1 SIS-1004         10198.                1448                           7.04
##  2 SIS-1004         10198.                1448                           7.04
##  3 K76              10426.                1818                           5.73
##  4 K76              10426.                1818                           5.73
##  5 SIS-3416         10435.                2806                           3.72
##  6 K29              10136.                2751                           3.68
##  7 K29              10136.                2751                           3.68
##  8 K29              10136.                2751                           3.68
##  9 K166             10320.                3652                           2.83
## 10 K166             10320.                3652                           2.83
## # ℹ 37 more rows
…
